funct_cov/delivery/dump.vcd
$date
	Thu Jun 12 23:07:19 2025
$end

$version
	Synopsys VCS version N-2017.12-1_Full64
$end

$timescale
	1ps
$end

$comment Csum: 1 d25f40c4b667d65b $end


$scope module $unit $end
$upscope $end


$scope module tb $end
$var reg 1 ! clk $end

$scope begin unnamed$$_vcs_1 $end
$upscope $end


$scope begin unnamed$$_0 $end
$upscope $end


$scope begin unnamed$$_vcs_0 $end
$upscope $end


$scope module _if $end
$var reg 1 " clk $end
$var reg 1 # rstn $end
$var reg 8 $ addr [7:0] $end
$var reg 24 % wdata [23:0] $end
$var reg 24 & rdata [23:0] $end
$var reg 1 ' wr $end
$var reg 1 ( sel $end
$var reg 1 ) ready $end
$var reg 1 * acc $end
$var reg 1 + func $end
$upscope $end


$scope module u0 $end
$var wire 1 , clk $end
$var wire 1 - rstn $end
$var wire 8 . addr [7:0] $end
$var wire 1 / sel $end
$var wire 1 0 wr $end
$var wire 1 1 acc $end
$var wire 1 2 func $end
$var wire 24 3 wdata [23:0] $end
$var reg 24 4 rdata [23:0] $end
$var reg 1 5 ready $end
$var reg 1 6 ready_dly $end
$var wire 1 7 ready_pe $end
$var wire 1 8 addr_trig0 $end
$var wire 1 9 addr_trig1 $end
$var wire 1 : addr_trig2 $end
$var wire 1 ; data_trig0 $end
$var wire 1 < data_trig1 $end
$var wire 1 = data_trig2 $end
$var wire 1 > combo_trig0 $end
$var wire 1 ? combo_trig1 $end
$var wire 1 @ combo_trig2 $end
$var wire 1 A combo_trig3 $end
$var wire 8 B bugged_addr [7:0] $end
$var wire 24 C bugged_wdata_2 [23:0] $end
$var wire 24 D bugged_wdata_3 [23:0] $end
$var wire 24 E bugged_wdata_4 [23:0] $end
$var wire 24 F final_wdata [23:0] $end
$var wire 1 G valid_wr $end
$var wire 24 H raw_rdata [23:0] $end
$var wire 24 I bugged_rdata_7 [23:0] $end
$var wire 1 J bugged_func $end
$var wire 1 K bug_flip_ready_dly $end

$scope begin unnamed$$_0 $end
$upscope $end

$upscope $end

$upscope $end

$enddefinitions $end

#0
$dumpvars
0!
bxxxxxxxxxxxxxxxxxxxxxxxx &
bxxxxxxxxxxxxxxxxxxxxxxxx %
bxxxxxxxx $
x8
x9
x:
xK
xJ
x>
x?
x@
xA
x;
x<
x=
x5
x6
x7
0G
bxxxxxxxx B
bxxxxxxxxxxxxxxxxxxxxxxxx I
bxxxxxxxxxxxxxxxxxxxxxxxx C
bxxxxxxxxxxxxxxxxxxxxxxxx D
bxxxxxxxxxxxxxxxxxxxxxxxx E
bxxxxxxxxxxxxxxxxxxxxxxxx F
bxxxxxxxxxxxxxxxxxxxxxxxx H
bxxxxxxxxxxxxxxxxxxxxxxxx 4
0"
0,
bxxxxxxxx .
bxxxxxxxxxxxxxxxxxxxxxxxx 3
0-
0/
x0
x1
x2
x*
x+
x)
0#
0(
x'
$end
#10000
1!
1,
1"
b000000000000000000000000 4
b000000000000000000000000 &
15
07
1)
16
#20000
1#
1-
0!
0,
0"
#30000
1!
1,
1"
1(
1/
b11001100 $
b11001100 .
0A
0K
0@
0?
0>
0:
09
08
0'
00
0*
01
1+
12
b000000000000000000110100 %
b000000000000000000110100 3
0=
0<
0;
0G
b11001100 B
b000100100011010001010110 H
1J
b000000000000000000110100 C
b000100100011010001010110 I
b000000000000000000110100 D
b000000000000000000110100 E
b000000000000000000110100 F
#40000
0!
0,
0"
#50000
1!
1,
1"
b000100100011010001010110 4
b000100100011010001010110 &
05
17
0)
0(
0/
1(
1/
b11011000 $
b11011000 .
1'
10
0+
02
b000001010111110101011000 %
b000001010111110101011000 3
b11011000 B
0J
b000001010111110101011000 C
b000001010111110101011000 D
b000001010111110101011000 E
b000001010111110101011000 F
#60000
0!
0,
0"
#70000
1!
1,
1"
b000000000000000000000000 4
b000000000000000000000000 &
15
07
1)
06
1G
#80000
0!
0,
0"
#90000
1!
1,
1"
b000001010111110101011000 H
16
0(
0/
1(
1/
b01111001 $
b01111001 .
0'
00
1+
12
b110010101110111100000010 %
b110010101110111100000010 3
b000001010111110101011000 I
0G
b01111001 B
b000100100011010001010110 H
1J
b110010101110111100000010 C
b000100100011010001010110 I
b110010101110111100000010 D
b110010101110111100000010 E
b110010101110111100000010 F
#100000
0!
0,
0"
#110000
1!
1,
1"
b000100100011010001010110 4
b000100100011010001010110 &
05
17
0)
0(
0/
1(
1/
b00010001 $
b00010001 .
1'
10
0+
02
b000000000010100100111111 %
b000000000010100100111111 3
b00010001 B
0J
b000000000010100100111111 C
b000000000010100100111111 D
b000000000010100100111111 E
b000000000010100100111111 F
#120000
0!
0,
0"
#130000
1!
1,
1"
b000000000000000000000000 4
b000000000000000000000000 &
15
07
1)
06
1G
#140000
0!
0,
0"
#150000
1!
1,
1"
b000000000010100100111111 H
16
0(
0/
1(
1/
b01111000 $
b01111000 .
1*
11
1+
12
b000000000000000001011101 %
b000000000000000001011101 3
b000000000010100100111111 I
1G
b01111000 B
b000100100011010001010110 H
1J
b000000000000000001011101 C
b000100100011010001010110 I
b000000000000000001011101 D
b000000000000000001011101 E
b000000000000000001011101 F
#160000
0!
0,
0"
#170000
1!
1,
1"
b000000000000000001011101 H
0(
0/
1(
1/
b10011011 $
b10011011 .
0*
01
b111111111111111111111111 %
b111111111111111111111111 3
b000000000000000001011101 I
1G
b10011011 B
b000100100011010001010110 H
b111111111111111111111111 C
b000100100011010001010110 I
b111111111111111111111111 D
b111111111111111111111111 E
b111111111111111111111111 F
#180000
0!
0,
0"
#190000
1!
1,
1"
b111111111111111111111111 H
0(
0/
1(
1/
b01100100 $
b01100100 .
0'
00
0+
02
b000010011011110011110100 %
b000010011011110011110100 3
b111111111111111111111111 I
0G
b01100100 B
b000100100011010001010110 H
0J
b000010011011110011110100 C
b000100100011010001010110 I
b000010011011110011110100 D
b000010011011110011110100 E
b000010011011110011110100 F
#200000
0!
0,
0"
#210000
1!
1,
1"
b000100100011010001010110 4
b000100100011010001010110 &
05
17
0)
0(
0/
1(
1/
b00111010 $
b00111010 .
1+
12
b000011101010010011011111 %
b000011101010010011011111 3
b00111010 B
1J
b000011101010010011011111 C
b000011101010010011011111 D
b000011101010010011011111 E
b000011101010010011011111 F
#220000
0!
0,
0"
#230000
1!
1,
1"
b000000000000000000000000 4
b000000000000000000000000 &
15
07
1)
06
#240000
0!
0,
0"
#250000
1!
1,
1"
b000100100011010001010110 4
b000100100011010001010110 &
05
0)
16
17
0(
0/
1(
1/
b11010000 $
b11010000 .
b000000000001000101010000 %
b000000000001000101010000 3
b11010000 B
b000000000001000101010000 C
b000000000001000101010000 D
b000000000001000101010000 E
b000000000001000101010000 F
#260000
0!
0,
0"
#270000
1!
1,
1"
b000000000000000000000000 4
b000000000000000000000000 &
15
07
1)
06
#280000
0!
0,
0"
#290000
1!
1,
1"
b000100100011010001010110 4
b000100100011010001010110 &
05
0)
16
17
0(
0/
1(
1/
b11010001 $
b11010001 .
1'
10
b000000000000000010100100 %
b000000000000000010100100 3
b11010001 B
b000000000000000010100100 C
b000000000000000010100100 D
b000000000000000010100100 E
b000000000000000010100100 F
#300000
0!
0,
0"
#310000
1!
1,
1"
b000000000000000000000000 4
b000000000000000000000000 &
15
07
1)
06
1G
#320000
0!
0,
0"
#330000
1!
1,
1"
b000000000000000010100100 H
16
0(
0/
1(
1/
b10111000 $
b10111000 .
1*
11
0+
02
b000000000000000001001010 %
b000000000000000001001010 3
b000000000000000010100100 I
1G
b10111000 B
b000100100011010001010110 H
0J
b000000000000000001001010 C
b000100100011010001010110 I
b000000000000000001001010 D
b000000000000000001001010 E
b000000000000000001001010 F
#340000
0!
0,
0"
#350000
1!
1,
1"
b000000000000000001001010 H
0(
0/
1(
1/
b10000000 $
b10000000 .
0'
00
0*
01
1+
12
b100000100101000000000001 %
b100000100101000000000001 3
b000000000000000001001010 I
0G
b10000000 B
b000100100011010001010110 H
1J
b100000100101000000000001 C
b000100100011010001010110 I
b100000100101000000000001 D
b100000100101000000000001 E
b100000100101000000000001 F
#360000
0!
0,
0"
#370000
1!
1,
1"
b000100100011010001010110 4
b000100100011010001010110 &
05
17
0)
0(
0/
1(
1/
b11110010 $
b11110010 .
b000000000000000001011100 %
b000000000000000001011100 3
b11110010 B
b000000000000000001011100 C
b000000000000000001011100 D
b000000000000000001011100 E
b000000000000000001011100 F
#380000
0!
0,
0"
#390000
1!
1,
1"
b000000000000000000000000 4
b000000000000000000000000 &
15
07
1)
06
#400000
0!
0,
0"
#410000
1!
1,
1"
b000100100011010001010110 4
b000100100011010001010110 &
05
0)
16
17
0(
0/
1(
1/
b00110011 $
b00110011 .
1'
10
0+
02
b001110110000010110000111 %
b001110110000010110000111 3
b00110011 B
0J
b001110110000010110000111 C
b001110110000010110000111 D
b001110110000010110000111 E
b001110110000010110000111 F
#420000
0!
0,
0"
#430000
1!
1,
1"
b000000000000000000000000 4
b000000000000000000000000 &
15
07
1)
06
1G
#440000
0!
0,
0"
#450000
1!
1,
1"
b001110110000010110000111 H
16
0(
0/
1(
1/
b10001011 $
b10001011 .
0'
00
b000000001000010100100001 %
b000000001000010100100001 3
b001110110000010110000111 I
0G
b10001011 B
b000100100011010001010110 H
b000000001000010100100001 C
b000100100011010001010110 I
b000000001000010100100001 D
b000000001000010100100001 E
b000000001000010100100001 F
#460000
0!
0,
0"
#470000
1!
1,
1"
b000100100011010001010110 4
b000100100011010001010110 &
05
17
0)
0(
0/
1(
1/
b10101011 $
b10101011 .
1'
10
b000000000000000001000111 %
b000000000000000001000111 3
b10101011 B
b000000000000000001000111 C
b000000000000000001000111 D
b000000000000000001000111 E
b000000000000000001000111 F
#480000
0!
0,
0"
#490000
1!
1,
1"
b000000000000000000000000 4
b000000000000000000000000 &
15
07
1)
06
1G
#500000
0!
0,
0"
#510000
1!
1,
1"
b000000000000000001000111 H
16
0(
0/
1(
1/
b00111100 $
b00111100 .
0'
00
b110010111110001010001011 %
b110010111110001010001011 3
b000000000000000001000111 I
0G
b00111100 B
b000100100011010001010110 H
b110010111110001010001011 C
b000100100011010001010110 I
b110010111110001010001011 D
b110010111110001010001011 E
b110010111110001010001011 F
#520000
0!
0,
0"
#530000
1!
1,
1"
b000100100011010001010110 4
b000100100011010001010110 &
05
17
0)
0(
0/
1(
1/
b10001101 $
b10001101 .
1+
12
b000000000000111011110111 %
b000000000000111011110111 3
b10001101 B
1J
b000000000000111011110111 C
b000000000000111011110111 D
b000000000000111011110111 E
b000000000000111011110111 F
#540000
0!
0,
0"
#550000
1!
1,
1"
b000000000000000000000000 4
b000000000000000000000000 &
15
07
1)
06
#560000
0!
0,
0"
#570000
1!
1,
1"
b000100100011010001010110 4
b000100100011010001010110 &
05
0)
16
17
0(
0/
1(
1/
b10000011 $
b10000011 .
b000001111111000001011110 %
b000001111111000001011110 3
b10000011 B
b000001111111000001011110 C
b000001111111000001011110 D
b000001111111000001011110 E
b000001111111000001011110 F
#580000
0!
0,
0"
#590000
1!
1,
1"
b000000000000000000000000 4
b000000000000000000000000 &
15
07
1)
06
#600000
0!
0,
0"
#610000
1!
1,
1"
b000100100011010001010110 4
b000100100011010001010110 &
05
0)
16
17
0(
0/
1(
1/
b00101101 $
b00101101 .
0+
02
b110000110000010110110110 %
b110000110000010110110110 3
b00101101 B
0J
b110000110000010110110110 C
b110000110000010110110110 D
b110000110000010110110110 E
b110000110000010110110110 F
#620000
0!
0,
0"
#630000
1!
1,
1"
b000000000000000000000000 4
b000000000000000000000000 &
15
07
1)
06
#640000
0!
0,
0"
#650000
1!
1,
1"
b000100100011010001010110 4
b000100100011010001010110 &
05
0)
16
17
0(
0/
1(
1/
b01110101 $
b01110101 .
1+
12
b010011100000101100001100 %
b010011100000101100001100 3
b01110101 B
1J
b010011100000101100001100 C
b010011100000101100001100 D
b010011100000101100001100 E
b010011100000101100001100 F
#660000
0!
0,
0"
#670000
1!
1,
1"
b000000000000000000000000 4
b000000000000000000000000 &
15
07
1)
06
#680000
0!
0,
0"
#690000
1!
1,
1"
b000100100011010001010110 4
b000100100011010001010110 &
05
0)
16
17
0(
0/
1(
1/
b10011101 $
b10011101 .
0+
02
b000000010110000011011110 %
b000000010110000011011110 3
b10011101 B
0J
b000000010110000011011110 C
b000000010110000011011110 D
b000000010110000011011110 E
b000000010110000011011110 F
#700000
0!
0,
0"
#710000
1!
1,
1"
b000000000000000000000000 4
b000000000000000000000000 &
15
07
1)
06
#720000
0!
0,
0"
#730000
1!
1,
1"
b000100100011010001010110 4
b000100100011010001010110 &
05
0)
16
17
0(
0/
1(
1/
b10011100 $
b10011100 .
1+
12
b100000111001100110101011 %
b100000111001100110101011 3
b10011100 B
1J
b100000111001100110101011 C
b100000111001100110101011 D
b100000111001100110101011 E
b100000111001100110101011 F
#740000
0!
0,
0"
#750000
1!
1,
1"
b000000000000000000000000 4
b000000000000000000000000 &
15
07
1)
06
#760000
0!
0,
0"
#770000
1!
1,
1"
b000100100011010001010110 4
b000100100011010001010110 &
05
0)
16
17
0(
0/
1(
1/
b11011000 $
b11011000 .
0+
02
b000010100111001011101100 %
b000010100111001011101100 3
b11011000 B
b000001010111110101011000 H
0J
b000010100111001011101100 C
b000001010111110101011000 I
b000010100111001011101100 D
b000010100111001011101100 E
b000010100111001011101100 F
#780000
0!
0,
0"
#790000
1!
1,
1"
b000000000000000000000000 4
b000000000000000000000000 &
15
07
1)
06
#800000
0!
0,
0"
#810000
1!
1,
1"
b000001010111110101011000 4
b000001010111110101011000 &
05
0)
16
17
0(
0/
1(
1/
b10111110 $
b10111110 .
b000001010101111000100010 %
b000001010101111000100010 3
b10111110 B
b000100100011010001010110 H
b000001010101111000100010 C
b000100100011010001010110 I
b000001010101111000100010 D
b000001010101111000100010 E
b000001010101111000100010 F
#820000
0!
0,
0"
#830000
1!
1,
1"
b000000000000000000000000 4
b000000000000000000000000 &
15
07
1)
06
#840000
0!
0,
0"
#850000
1!
1,
1"
b000100100011010001010110 4
b000100100011010001010110 &
05
0)
16
17
0(
0/
1(
1/
b11101100 $
b11101100 .
1'
10
1+
12
b000000000000000000001000 %
b000000000000000000001000 3
b11101100 B
1J
b000000000000000000001000 C
b000000000000000000001000 D
b000000000000000000001000 E
b000000000000000000001000 F
#860000
0!
0,
0"
#870000
1!
1,
1"
b000000000000000000000000 4
b000000000000000000000000 &
15
07
1)
06
1G
#880000
0!
0,
0"
#890000
1!
1,
1"
b000000000000000000001000 H
16
0(
0/
1(
1/
b01100110 $
b01100110 .
0+
02
b001110001001100011111001 %
b001110001001100011111001 3
b000000000000000000001000 I
1G
b01100110 B
b000100100011010001010110 H
0J
b001110001001100011111001 C
b000100100011010001010110 I
b001110001001100011111001 D
b001110001001100011111001 E
b001110001001100011111001 F
#900000
0!
0,
0"
#910000
1!
1,
1"
b001110001001100011111001 H
0(
0/
1(
1/
b10010011 $
b10010011 .
1+
12
b000000000010111010100010 %
b000000000010111010100010 3
b001110001001100011111001 I
1G
b10010011 B
b000100100011010001010110 H
1J
b000000000010111010100010 C
b000100100011010001010110 I
b000000000010111010100010 D
b000000000010111010100010 E
b000000000010111010100010 F
#920000
0!
0,
0"
#930000
1!
1,
1"
b000000000010111010100010 H
0(
0/
1(
1/
b10110100 $
b10110100 .
0'
00
1*
11
b000000000000000000000111 %
b000000000000000000000111 3
b000000000010111010100010 I
0G
b10110100 B
b000100100011010001010110 H
b000000000000000000000111 C
b000100100011010001010110 I
b000000000000000000000111 D
b000000000000000000000111 E
b000000000000000000000111 F
#940000
0!
0,
0"
#950000
1!
1,
1"
b011111110110111001011010 H
0(
0/
1(
1/
b10010101 $
b10010101 .
0*
01
b000010100011000001001011 %
b000010100011000001001011 3
b011111110110111001011010 I
b10010101 B
b000100100011010001010110 H
b000010100011000001001011 C
b000100100011010001010110 I
b000010100011000001001011 D
b000010100011000001001011 E
b000010100011000001001011 F
#960000
0!
0,
0"
#970000
1!
1,
1"
b000100100011010001010110 4
b000100100011010001010110 &
05
17
0)
0(
0/
1(
1/
b00101100 $
b00101100 .
1'
10
0+
02
b000000110000011010000000 %
b000000110000011010000000 3
b00101100 B
0J
b000000110000011010000000 C
b000000110000011010000000 D
b000000110000011010000000 E
b000000110000011010000000 F
#980000
0!
0,
0"
#990000
1!
1,
1"
b000000000000000000000000 4
b000000000000000000000000 &
15
07
1)
06
1G
#1000000
0!
0,
0"
#1010000
1!
1,
1"
b000000110000011010000000 H
16
0(
0/
1(
1/
b00110000 $
b00110000 .
1:
0'
00
b000000111100110111100010 %
b000000111100110111100010 3
b000000110000011010000000 I
0G
b00110000 B
b000100100011010001010110 H
b000000110000010101100000 D
b000000111100110111100010 C
b000100100011010001010110 I
b000000110000010101100000 E
b000000110000010101100000 F
b000000111100111000000010 D
b000000111100111000000010 E
b000000111100111000000010 F
#1020000
0!
0,
0"
#1030000
1!
1,
1"
b000100100011010001010110 4
b000100100011010001010110 &
05
17
0)
0(
0/
1(
1/
b10100111 $
b10100111 .
0:
b111111111111111111111111 %
b111111111111111111111111 3
b10100111 B
b000000111100110111100010 D
b111111111111111111111111 C
b000000111100110111100010 E
b000000111100110111100010 F
b111111111111111111111111 D
b111111111111111111111111 E
b111111111111111111111111 F
#1040000
0!
0,
0"
#1050000
1!
1,
1"
b000000000000000000000000 4
b000000000000000000000000 &
15
07
1)
06
#1060000
0!
0,
0"
#1070000
1!
1,
1"
b000100100011010001010110 4
b000100100011010001010110 &
05
0)
16
17
0(
0/
1(
1/
b11101001 $
b11101001 .
1'
10
b000000000011100111000010 %
b000000000011100111000010 3
b11101001 B
b000000000011100111000010 C
b000000000011100111000010 D
b000000000011100111000010 E
b000000000011100111000010 F
#1080000
0!
0,
0"
#1090000
1!
1,
1"
b000000000000000000000000 4
b000000000000000000000000 &
15
07
1)
06
1G
#1100000
0!
0,
0"
#1110000
1!
1,
1"
b000000000011100111000010 H
16
0(
0/
1(
1/
b11100101 $
b11100101 .
0'
00
1*
11
b000000000000000000101011 %
b000000000000000000101011 3
b000000000011100111000010 I
0G
b11100101 B
b000100100011010001010110 H
b000000000000000000101011 C
b000100100011010001010110 I
b000000000000000000101011 D
b000000000000000000101011 E
b000000000000000000101011 F
#1120000
0!
0,
0"
#1130000
1!
1,
1"
b000100100011010010000001 H
0(
0/
1(
1/
b01100000 $
b01100000 .
1+
12
b000000000000000000001101 %
b000000000000000000001101 3
b000100100011010010000001 I
b01100000 B
b000100100011010001010110 H
1J
b000000000000000000001101 C
b000100100011010001010110 I
b000000000000000000001101 D
b000000000000000000001101 E
b000000000000000000001101 F
#1140000
0!
0,
0"
#1150000
1!
1,
1"
b111011001010100001011110 H
0(
0/
1(
1/
b10000101 $
b10000101 .
1'
10
b000000000000000000011010 %
b000000000000000000011010 3
b111011001010100001011110 I
b10000101 B
b000100100011010001010110 H
1G
b000000000000000000011010 C
b000100100011010001010110 I
b000000000000000000011010 D
b000000000000000000011010 E
b000000000000000000011010 F
#1160000
0!
0,
0"
#1170000
1!
1,
1"
b000000000000000000011010 H
0(
0/
1(
1/
b01100111 $
b01100111 .
0'
00
b000000000000000001001110 %
b000000000000000001001110 3
b000000000000000000011010 I
0G
b01100111 B
b000100100011010001010110 H
b000000000000000001001110 C
b000100100011010001010110 I
b000000000000000001001110 D
b000000000000000001001110 E
b000000000000000001001110 F
#1180000
0!
0,
0"
#1190000
1!
1,
1"
b100010111111001000110100 H
0(
0/
1(
1/
b00100001 $
b00100001 .
0*
01
0+
02
b000000001110011010011010 %
b000000001110011010011010 3
b100010111111001000110100 I
b00100001 B
b000100100011010001010110 H
0J
b000000001110011010011010 C
b000100100011010001010110 I
b000000001110011010011010 D
b000000001110011010011010 E
b000000001110011010011010 F
#1200000
0!
0,
0"
#1210000
1!
1,
1"
b000100100011010001010110 4
b000100100011010001010110 &
05
17
0)
0(
0/
1(
1/
b01001011 $
b01001011 .
1'
10
1*
11
1+
12
b000000000000000000001101 %
b000000000000000000001101 3
b01001011 B
1J
b000000000000000000001101 C
b000000000000000000001101 D
b000000000000000000001101 E
b000000000000000000001101 F
#1220000
0!
0,
0"
#1230000
1!
1,
1"
b000000000000000000000000 4
b000000000000000000000000 &
15
07
1)
06
1G
#1240000
0!
0,
0"
#1250000
1!
1,
1"
b000000000000000000001101 H
16
0(
0/
1(
1/
b01111101 $
b01111101 .
0'
00
0*
01
0+
02
b101001111000010011100111 %
b101001111000010011100111 3
b000000000000000000001101 I
0G
b01111101 B
b000100100011010001010110 H
0J
b101001111000010011100111 C
b000100100011010001010110 I
b101001111000010011100111 D
b101001111000010011100111 E
b101001111000010011100111 F
#1260000
0!
0,
0"
#1270000
1!
1,
1"
b000100100011010001010110 4
b000100100011010001010110 &
05
17
0)
0(
0/
1(
1/
b10111010 $
b10111010 .
1+
12
b011010100101001101010001 %
b011010100101001101010001 3
b10111010 B
1J
b011010100101001101010001 C
b011010100101001101010001 D
b011010100101001101010001 E
b011010100101001101010001 F
#1280000
0!
0,
0"
#1290000
1!
1,
1"
b000000000000000000000000 4
b000000000000000000000000 &
15
07
1)
06
#1300000
0!
0,
0"
#1310000
1!
1,
1"
b000100100011010001010110 4
b000100100011010001010110 &
05
0)
16
17
0(
0/
1(
1/
b01010000 $
b01010000 .
1'
10
1*
11
b000000000000000000000010 %
b000000000000000000000010 3
b01010000 B
b000000000000000000000010 C
b000000000000000000000010 D
b000000000000000000000010 E
b000000000000000000000010 F
#1320000
0!
0,
0"
#1330000
1!
1,
1"
b000000000000000000000000 4
b000000000000000000000000 &
15
07
1)
06
1G
#1340000
0!
0,
0"
#1350000
1!
1,
1"
b000000000000000000000010 H
16
0(
0/
1(
1/
b10000000 $
b10000000 .
0'
00
0*
01
b000000000000000000000000 %
b000000000000000000000000 3
b000000000000000000000010 I
0G
b10000000 B
b000100100011010001010110 H
b000000000000000000000000 C
b000100100011010001010110 I
b000000000000000000000000 D
b000000000000000000000000 E
b000000000000000000000000 F
#1360000
0!
0,
0"
#1370000
1!
1,
1"
b000100100011010001010110 4
b000100100011010001010110 &
05
17
0)
0(
0/
1(
1/
b10100000 $
b10100000 .
1'
10
b000010101111111110101010 %
b000010101111111110101010 3
b10100000 B
b000010101111111110101010 C
b000010101111111110101010 D
b000010101111111110101010 E
b000010101111111110101010 F
#1380000
0!
0,
0"
#1390000
1!
1,
1"
b000000000000000000000000 4
b000000000000000000000000 &
15
07
1)
06
1G
#1400000
0!
0,
0"
#1410000
1!
1,
1"
b000010101111111110101010 H
16
0(
0/
1(
1/
b00110100 $
b00110100 .
0+
02
b000010011001101110001101 %
b000010011001101110001101 3
b000010101111111110101010 I
1G
b00110100 B
b000100100011010001010110 H
0J
b000010011001101110001101 C
b000100100011010001010110 I
b000010011001101110001101 D
b000010011001101110001101 E
b000010011001101110001101 F
#1420000
0!
0,
0"
#1430000
1!
1,
1"
b000010011001101110001101 H
0(
0/
1(
1/
b10010100 $
b10010100 .
1*
11
b000000000000000001000110 %
b000000000000000001000110 3
b000010011001101110001101 I
1G
b10010100 B
b000100100011010001010110 H
b000000000000000001000110 C
b000100100011010001010110 I
b000000000000000001000110 D
b000000000000000001000110 E
b000000000000000001000110 F
#1440000
0!
0,
0"
#1450000
1!
1,
1"
b000000000000000001000110 H
0(
0/
1(
1/
b01011000 $
b01011000 .
0'
00
b000000000000000000010110 %
b000000000000000000010110 3
b000000000000000001000110 I
0G
b01011000 B
b000100100011010001010110 H
b000000000000000000010110 C
b000100100011010001010110 I
b000000000000000000010110 D
b000000000000000000010110 E
b000000000000000000010110 F
#1460000
0!
0,
0"
#1470000
1!
1,
1"
b000100100011010001101100 H
0(
0/
1(
1/
b11111111 $
b11111111 .
1'
10
0*
01
1+
12
b000000001001010001101001 %
b000000001001010001101001 3
b000100100011010001101100 I
b11111111 B
b000100100011010001010110 H
1G
1J
b000000001001010001101001 C
b000100100011010001010110 I
b000000001001010001101001 D
b000000001001010001101001 E
b000000001001010001101001 F
#1480000
0!
0,
0"
#1490000
1!
1,
1"
b000000001001010001101001 H
0(
0/
1(
1/
b11011010 $
b11011010 .
0+
02
b000010111011000100100000 %
b000010111011000100100000 3
b000000001001010001101001 I
1G
b11011010 B
b000100100011010001010110 H
0J
b000010111011000100100000 C
b000100100011010001010110 I
b000010111011000100100000 D
b000010111011000100100000 E
b000010111011000100100000 F
#1500000
0!
0,
0"
#1510000
1!
1,
1"
b000010111011000100100000 H
0(
0/
1(
1/
b01101110 $
b01101110 .
1*
11
b000000000000000000110110 %
b000000000000000000110110 3
b000010111011000100100000 I
1G
b01101110 B
b000100100011010001010110 H
b000000000000000000110110 C
b000100100011010001010110 I
b000000000000000000110110 D
b000000000000000000110110 E
b000000000000000000110110 F
#1520000
0!
0,
0"
#1530000
1!
1,
1"
b000000000000000000110110 H
0(
0/
1(
1/
b00111100 $
b00111100 .
0*
01
1+
12
b000010001001111000000111 %
b000010001001111000000111 3
b000000000000000000110110 I
1G
b00111100 B
b000100100011010001010110 H
1J
b000010001001111000000111 C
b000100100011010001010110 I
b000010001001111000000111 D
b000010001001111000000111 E
b000010001001111000000111 F
#1540000
0!
0,
0"
#1550000
1!
1,
1"
b000010001001111000000111 H
0(
0/
1(
1/
b01001000 $
b01001000 .
0'
00
b011000011001111010011010 %
b011000011001111010011010 3
b000010001001111000000111 I
0G
b01001000 B
b000100100011010001010110 H
b011000011001111010011010 C
b000100100011010001010110 I
b011000011001111010011010 D
b011000011001111010011010 E
b011000011001111010011010 F
#1560000
0!
0,
0"
#1570000
1!
1,
1"
b000100100011010001010110 4
b000100100011010001010110 &
05
17
0)
0(
0/
1(
1/
b10101001 $
b10101001 .
1*
11
0+
02
b000000000000000001001100 %
b000000000000000001001100 3
b10101001 B
0J
b000000000000000001001100 C
b000000000000000001001100 D
b000000000000000001001100 E
b000000000000000001001100 F
#1580000
0!
0,
0"
#1590000
1!
1,
1"
b000000000000000000000000 4
b000000000000000000000000 &
15
07
1)
06
#1600000
0!
0,
0"
#1610000
1!
1,
1"
b000100100011010010100010 H
16
0(
0/
1(
1/
b00101100 $
b00101100 .
0*
01
b000000000000000010111100 %
b000000000000000010111100 3
b000100100011010010100010 I
b00101100 B
b000000110000011010000000 H
b000000000000000010111100 C
b000000110000011010000000 I
b000000000000000010111100 D
b000000000000000010111100 E
b000000000000000010111100 F
#1620000
0!
0,
0"
#1630000
1!
1,
1"
b000000110000011010000000 4
b000000110000011010000000 &
05
17
0)
0(
0/
1(
1/
b01110011 $
b01110011 .
b000001110111011110110010 %
b000001110111011110110010 3
b01110011 B
b000100100011010001010110 H
b000001110111011110110010 C
b000100100011010001010110 I
b000001110111011110110010 D
b000001110111011110110010 E
b000001110111011110110010 F
#1640000
0!
0,
0"
#1650000
1!
1,
1"
b000000000000000000000000 4
b000000000000000000000000 &
15
07
1)
06
#1660000
0!
0,
0"
#1670000
1!
1,
1"
b000100100011010001010110 4
b000100100011010001010110 &
05
0)
16
17
0(
0/
1(
1/
b01111110 $
b01111110 .
1'
10
1+
12
b000000010110101001100110 %
b000000010110101001100110 3
b01111110 B
1J
b000000010110101001100110 C
b000000010110101001100110 D
b000000010110101001100110 E
b000000010110101001100110 F
#1680000
0!
0,
0"
#1690000
1!
1,
1"
b000000000000000000000000 4
b000000000000000000000000 &
15
07
1)
06
1G
#1700000
0!
0,
0"
#1710000
1!
1,
1"
b000000010110101001100110 H
16
0(
0/
1(
1/
b00010111 $
b00010111 .
1*
11
0+
02
b000000000000000000100110 %
b000000000000000000100110 3
b000000010110101001100110 I
1G
b00010111 B
b000100100011010001010110 H
0J
b000000000000000000100110 C
b000100100011010001010110 I
b000000000000000000100110 D
b000000000000000000100110 E
b000000000000000000100110 F
#1720000
0!
0,
0"
#1730000
1!
1,
1"
b000000000000000000100110 H
0(
0/
1(
1/
b11000101 $
b11000101 .
0'
00
1+
12
b000000000000000001100010 %
b000000000000000001100010 3
b000000000000000000100110 I
0G
b11000101 B
b000100100011010001010110 H
1J
b000000000000000001100010 C
b000100100011010001010110 I
b000000000000000001100010 D
b000000000000000001100010 E
b000000000000000001100010 F
#1740000
0!
0,
0"
#1750000
1!
1,
1"
b111110000000100011101100 H
0(
0/
1(
1/
b01101100 $
b01101100 .
1'
10
0*
01
b000000000101000010111100 %
b000000000101000010111100 3
b111110000000100011101100 I
b01101100 B
b000100100011010001010110 H
1G
b000000000101000010111100 C
b000100100011010001010110 I
b000000000101000010111100 D
b000000000101000010111100 E
b000000000101000010111100 F
#1760000
0!
0,
0"
#1770000
1!
1,
1"
b000000000101000010111100 H
0(
0/
1(
1/
b01100100 $
b01100100 .
1*
11
0+
02
b000000000000000000111100 %
b000000000000000000111100 3
b000000000101000010111100 I
1G
b01100100 B
b000100100011010001010110 H
0J
b000000000000000000111100 C
b000100100011010001010110 I
b000000000000000000111100 D
b000000000000000000111100 E
b000000000000000000111100 F
#1780000
0!
0,
0"
#1790000
1!
1,
1"
b000000000000000000111100 H
0(
0/
1(
1/
b00100011 $
b00100011 .
0'
00
0*
01
b000000001101011111011111 %
b000000001101011111011111 3
b000000000000000000111100 I
0G
b00100011 B
b000100100011010001010110 H
b000000001101011111011111 C
b000100100011010001010110 I
b000000001101011111011111 D
b000000001101011111011111 E
b000000001101011111011111 F
#1800000
0!
0,
0"
#1810000
1!
1,
1"
b000100100011010001010110 4
b000100100011010001010110 &
05
17
0)
0(
0/
1(
1/
b01101111 $
b01101111 .
1'
10
1+
12
b000000001010111001110111 %
b000000001010111001110111 3
b01101111 B
1J
b000000001010111001110111 C
b000000001010111001110111 D
b000000001010111001110111 E
b000000001010111001110111 F
#1820000
0!
0,
0"
#1830000
1!
1,
1"
b000000000000000000000000 4
b000000000000000000000000 &
15
07
1)
06
1G
#1840000
0!
0,
0"
