results/logs/simulation_cov.log
Command: /home/12112195/register-controller-functional-coverage/funct_cov/delivery/./simv +vcs+vcdpluson -cm line+cond+fsm+branch+tgl -l ../../results/logs/simulation_cov.log +vcdfile=../../results/logs/dump_cov.vcd
Chronologic VCS simulator copyright 1991-2017
Contains Synopsys proprietary information.
Compiler version N-2017.12-1_Full64; Runtime version N-2017.12-1_Full64;  Jun 12 23:07 2025
VCD+ Writer N-2017.12-1_Full64 Copyright (c) 1991-2017 by Synopsys Inc.
T=20000 [Test] Environment started ...
T=20000 [Driver] starting ...
T=20000 [Monitor] starting ...
T=20000 [Generator] Generating 2000 transactions ...
T=30000 [Driver] waiting for item ...
T=30000 [Driver] addr=0xcc RD   NO_ACC wdata=0x34 rdata=0x0
T=50000 [Driver] waiting for item ...
T=50000 [Driver] addr=0xd8 WR   NO_ACC wdata=0x57d58 rdata=0x0
T=70000 [Driver] wait until ready is high
T=70000 [Monitor] addr=0xcc RD   NO_ACC wdata=0x34 rdata=0x123456
[SCB] PASS! Addr 0xcc: 0x123456
T=90000 [Driver] waiting for item ...
T=90000 [Driver] addr=0x79 RD   NO_ACC wdata=0xcaef02 rdata=0x0
T=90000 [Monitor] addr=0xd8 WR   NO_ACC wdata=0x57d58 rdata=0x0
[SCB] Writing to Addr 0xd8: the value is 0x57d58
[SCB] Updated Addr 0xd8: New value is 0x57d58
T=110000 [Driver] waiting for item ...
T=110000 [Driver] addr=0x11 WR   NO_ACC wdata=0x293f rdata=0x0
T=130000 [Driver] wait until ready is high
T=130000 [Monitor] addr=0x79 RD   NO_ACC wdata=0xcaef02 rdata=0x123456
[SCB] PASS! Addr 0x79: 0x123456
T=150000 [Driver] waiting for item ...
T=150000 [Driver] addr=0x78 WR ACC_MULT wdata=0x5d rdata=0x0
T=150000 [Monitor] addr=0x11 WR   NO_ACC wdata=0x293f rdata=0x0
[SCB] Writing to Addr 0x11: the value is 0x293f
[SCB] Updated Addr 0x11: New value is 0x293f
T=170000 [Driver] waiting for item ...
T=170000 [Driver] addr=0x9b WR   NO_ACC wdata=0xffffff rdata=0x0
T=170000 [Monitor] addr=0x78 WR ACC_MULT wdata=0x5d rdata=0x0
[SCB] Writing to Addr 0x78: the value is 0x5d
[SCB] Updated Addr 0x78: New value is 0x9d033e
T=190000 [Driver] waiting for item ...
T=190000 [Driver] addr=0x64 RD   NO_ACC wdata=0x9bcf4 rdata=0x0
T=190000 [Monitor] addr=0x9b WR   NO_ACC wdata=0xffffff rdata=0x0
[SCB] Writing to Addr 0x9b: the value is 0xffffff
[SCB] Updated Addr 0x9b: New value is 0xffffff
T=210000 [Driver] waiting for item ...
T=210000 [Driver] addr=0x3a RD   NO_ACC wdata=0xea4df rdata=0x0
T=230000 [Driver] wait until ready is high
T=230000 [Monitor] addr=0x64 RD   NO_ACC wdata=0x9bcf4 rdata=0x123456
[SCB] PASS! Addr 0x64: 0x123456
T=250000 [Driver] waiting for item ...
T=250000 [Driver] addr=0xd0 RD   NO_ACC wdata=0x1150 rdata=0x0
T=270000 [Driver] wait until ready is high
T=270000 [Monitor] addr=0x3a RD   NO_ACC wdata=0xea4df rdata=0x123456
[SCB] PASS! Addr 0x3a: 0x123456
T=290000 [Driver] waiting for item ...
T=290000 [Driver] addr=0xd1 WR   NO_ACC wdata=0xa4 rdata=0x0
T=310000 [Driver] wait until ready is high
T=310000 [Monitor] addr=0xd0 RD   NO_ACC wdata=0x1150 rdata=0x123456
[SCB] PASS! Addr 0xd0: 0x123456
T=330000 [Driver] waiting for item ...
T=330000 [Driver] addr=0xb8 WR  ACC_ADD wdata=0x4a rdata=0x0
T=330000 [Monitor] addr=0xd1 WR   NO_ACC wdata=0xa4 rdata=0x0
[SCB] Writing to Addr 0xd1: the value is 0xa4
[SCB] Updated Addr 0xd1: New value is 0xa4
T=350000 [Driver] waiting for item ...
T=350000 [Driver] addr=0x80 RD   NO_ACC wdata=0x825001 rdata=0x0
T=350000 [Monitor] addr=0xb8 WR  ACC_ADD wdata=0x4a rdata=0x0
[SCB] Writing to Addr 0xb8: the value is 0x4a
[SCB] Updated Addr 0xb8: New value is 0x1234a0
T=370000 [Driver] waiting for item ...
T=370000 [Driver] addr=0xf2 RD   NO_ACC wdata=0x5c rdata=0x0
T=390000 [Driver] wait until ready is high
T=390000 [Monitor] addr=0x80 RD   NO_ACC wdata=0x825001 rdata=0x123456
[SCB] PASS! Addr 0x80: 0x123456
T=410000 [Driver] waiting for item ...
T=410000 [Driver] addr=0x33 WR   NO_ACC wdata=0x3b0587 rdata=0x0
T=430000 [Driver] wait until ready is high
T=430000 [Monitor] addr=0xf2 RD   NO_ACC wdata=0x5c rdata=0x123456
[SCB] PASS! Addr 0xf2: 0x123456
T=450000 [Driver] waiting for item ...
T=450000 [Driver] addr=0x8b RD   NO_ACC wdata=0x8521 rdata=0x0
T=450000 [Monitor] addr=0x33 WR   NO_ACC wdata=0x3b0587 rdata=0x0
[SCB] Writing to Addr 0x33: the value is 0x3b0587
[SCB] Updated Addr 0x33: New value is 0x3b0587
T=470000 [Driver] waiting for item ...
T=470000 [Driver] addr=0xab WR   NO_ACC wdata=0x47 rdata=0x0
T=490000 [Driver] wait until ready is high
T=490000 [Monitor] addr=0x8b RD   NO_ACC wdata=0x8521 rdata=0x123456
[SCB] PASS! Addr 0x8b: 0x123456
T=510000 [Driver] waiting for item ...
T=510000 [Driver] addr=0x3c RD   NO_ACC wdata=0xcbe28b rdata=0x0
T=510000 [Monitor] addr=0xab WR   NO_ACC wdata=0x47 rdata=0x0
[SCB] Writing to Addr 0xab: the value is 0x47
[SCB] Updated Addr 0xab: New value is 0x47
T=530000 [Driver] waiting for item ...
T=530000 [Driver] addr=0x8d RD   NO_ACC wdata=0xef7 rdata=0x0
T=550000 [Driver] wait until ready is high
T=550000 [Monitor] addr=0x3c RD   NO_ACC wdata=0xcbe28b rdata=0x123456
[SCB] PASS! Addr 0x3c: 0x123456
T=570000 [Driver] waiting for item ...
T=570000 [Driver] addr=0x83 RD   NO_ACC wdata=0x7f05e rdata=0x0
T=590000 [Driver] wait until ready is high
T=590000 [Monitor] addr=0x8d RD   NO_ACC wdata=0xef7 rdata=0x123456
[SCB] PASS! Addr 0x8d: 0x123456
T=610000 [Driver] waiting for item ...
T=610000 [Driver] addr=0x2d RD   NO_ACC wdata=0xc305b6 rdata=0x0
T=630000 [Driver] wait until ready is high
T=630000 [Monitor] addr=0x83 RD   NO_ACC wdata=0x7f05e rdata=0x123456
[SCB] PASS! Addr 0x83: 0x123456
T=650000 [Driver] waiting for item ...
T=650000 [Driver] addr=0x75 RD   NO_ACC wdata=0x4e0b0c rdata=0x0
T=670000 [Driver] wait until ready is high
T=670000 [Monitor] addr=0x2d RD   NO_ACC wdata=0xc305b6 rdata=0x123456
[SCB] PASS! Addr 0x2d: 0x123456
T=690000 [Driver] waiting for item ...
T=690000 [Driver] addr=0x9d RD   NO_ACC wdata=0x160de rdata=0x0
T=710000 [Driver] wait until ready is high
T=710000 [Monitor] addr=0x75 RD   NO_ACC wdata=0x4e0b0c rdata=0x123456
[SCB] PASS! Addr 0x75: 0x123456
T=730000 [Driver] waiting for item ...
T=730000 [Driver] addr=0x9c RD   NO_ACC wdata=0x8399ab rdata=0x0
T=750000 [Driver] wait until ready is high
T=750000 [Monitor] addr=0x9d RD   NO_ACC wdata=0x160de rdata=0x123456
[SCB] PASS! Addr 0x9d: 0x123456
T=770000 [Driver] waiting for item ...
T=770000 [Driver] addr=0xd8 RD   NO_ACC wdata=0xa72ec rdata=0x0
T=790000 [Driver] wait until ready is high
T=790000 [Monitor] addr=0x9c RD   NO_ACC wdata=0x8399ab rdata=0x123456
[SCB] PASS! Addr 0x9c: 0x123456
T=810000 [Driver] waiting for item ...
T=810000 [Driver] addr=0xbe RD   NO_ACC wdata=0x55e22 rdata=0x0
T=830000 [Driver] wait until ready is high
T=830000 [Monitor] addr=0xd8 RD   NO_ACC wdata=0xa72ec rdata=0x57d58
[SCB] PASS! Addr 0xd8: 0x57d58
T=850000 [Driver] waiting for item ...
T=850000 [Driver] addr=0xec WR   NO_ACC wdata=0x8 rdata=0x0
T=870000 [Driver] wait until ready is high
T=870000 [Monitor] addr=0xbe RD   NO_ACC wdata=0x55e22 rdata=0x123456
[SCB] PASS! Addr 0xbe: 0x123456
T=890000 [Driver] waiting for item ...
T=890000 [Driver] addr=0x66 WR   NO_ACC wdata=0x3898f9 rdata=0x0
T=890000 [Monitor] addr=0xec WR   NO_ACC wdata=0x8 rdata=0x0
[SCB] Writing to Addr 0xec: the value is 0x8
[SCB] Updated Addr 0xec: New value is 0x8
T=910000 [Driver] waiting for item ...
T=910000 [Driver] addr=0x93 WR   NO_ACC wdata=0x2ea2 rdata=0x0
T=910000 [Monitor] addr=0x66 WR   NO_ACC wdata=0x3898f9 rdata=0x0
[SCB] Writing to Addr 0x66: the value is 0x3898f9
[SCB] Updated Addr 0x66: New value is 0x3898f9
T=930000 [Driver] waiting for item ...
T=930000 [Driver] addr=0xb4 RD ACC_MULT wdata=0x7 rdata=0x0
T=930000 [Monitor] addr=0x93 WR   NO_ACC wdata=0x2ea2 rdata=0x0
[SCB] Writing to Addr 0x93: the value is 0x2ea2
[SCB] Updated Addr 0x93: New value is 0x2ea2
T=950000 [Driver] waiting for item ...
T=950000 [Driver] addr=0x95 RD   NO_ACC wdata=0xa304b rdata=0x0
T=970000 [Driver] waiting for item ...
T=970000 [Driver] addr=0x2c WR   NO_ACC wdata=0x30680 rdata=0x0
T=990000 [Driver] wait until ready is high
T=990000 [Monitor] addr=0xb4 RD ACC_MULT wdata=0x7 rdata=0x123456
[SCB] PASS! Addr 0xb4: 0x123456
T=1010000 [Driver] waiting for item ...
T=1010000 [Driver] addr=0x30 RD   NO_ACC wdata=0x3cde2 rdata=0x0
T=1010000 [Monitor] addr=0x2c WR   NO_ACC wdata=0x30680 rdata=0x0
[SCB] Writing to Addr 0x2c: the value is 0x30680
[SCB] Updated Addr 0x2c: New value is 0x30680
T=1020000 [Test] Reporting coverage ...

=== ENHANCED FUNCTIONAL COVERAGE REPORT ===
Total Coverage: 92.34%
Address Coverage: 100.00%
Write Data Coverage: 80.00%
Read Data Coverage: 100.00%
Write/Read Coverage: 100.00%
Accumulate Coverage: 100.00%
Function Coverage: 100.00%

Cross Coverage:
WR x Addr: 85.71%
WR x ACC: 100.00%
ACC x Func: 100.00%
Addr x Wdata: 50.00%
Special Cases: 100.00%
==========================================

T=1030000 [Driver] waiting for item ...
T=1030000 [Driver] addr=0xa7 RD   NO_ACC wdata=0xffffff rdata=0x0
T=1050000 [Driver] wait until ready is high
T=1050000 [Monitor] addr=0x30 RD   NO_ACC wdata=0x3cde2 rdata=0x123456
[SCB] PASS! Addr 0x30: 0x123456
T=1070000 [Driver] waiting for item ...
T=1070000 [Driver] addr=0xe9 WR   NO_ACC wdata=0x39c2 rdata=0x0
T=1090000 [Driver] wait until ready is high
T=1090000 [Monitor] addr=0xa7 RD   NO_ACC wdata=0xffffff rdata=0x123456
[SCB] PASS! Addr 0xa7: 0x123456
T=1110000 [Driver] waiting for item ...
T=1110000 [Driver] addr=0xe5 RD  ACC_ADD wdata=0x2b rdata=0x0
T=1110000 [Monitor] addr=0xe9 WR   NO_ACC wdata=0x39c2 rdata=0x0
[SCB] Writing to Addr 0xe9: the value is 0x39c2
[SCB] Updated Addr 0xe9: New value is 0x39c2
T=1130000 [Driver] waiting for item ...
T=1130000 [Driver] addr=0x60 RD ACC_MULT wdata=0xd rdata=0x0
T=1150000 [Driver] waiting for item ...
T=1150000 [Driver] addr=0x85 WR ACC_MULT wdata=0x1a rdata=0x0
T=1170000 [Driver] waiting for item ...
T=1170000 [Driver] addr=0x67 RD ACC_MULT wdata=0x4e rdata=0x0
T=1190000 [Driver] waiting for item ...
T=1190000 [Driver] addr=0x21 RD   NO_ACC wdata=0xe69a rdata=0x0
T=1210000 [Driver] waiting for item ...
T=1210000 [Driver] addr=0x4b WR ACC_MULT wdata=0xd rdata=0x0
T=1230000 [Driver] wait until ready is high
T=1230000 [Monitor] addr=0xe5 RD  ACC_ADD wdata=0x2b rdata=0x123456
[SCB] PASS! Addr 0xe5: 0x123456
T=1250000 [Driver] waiting for item ...
T=1250000 [Driver] addr=0x7d RD   NO_ACC wdata=0xa784e7 rdata=0x0
T=1250000 [Monitor] addr=0x4b WR ACC_MULT wdata=0xd rdata=0x0
[SCB] Writing to Addr 0x4b: the value is 0xd
[SCB] Updated Addr 0x4b: New value is 0xeca85e
T=1270000 [Driver] waiting for item ...
T=1270000 [Driver] addr=0xba RD   NO_ACC wdata=0x6a5351 rdata=0x0
T=1290000 [Driver] wait until ready is high
T=1290000 [Monitor] addr=0x7d RD   NO_ACC wdata=0xa784e7 rdata=0x123456
[SCB] PASS! Addr 0x7d: 0x123456
T=1310000 [Driver] waiting for item ...
T=1310000 [Driver] addr=0x50 WR ACC_MULT wdata=0x2 rdata=0x0
T=1330000 [Driver] wait until ready is high
T=1330000 [Monitor] addr=0xba RD   NO_ACC wdata=0x6a5351 rdata=0x123456
[SCB] PASS! Addr 0xba: 0x123456
T=1350000 [Driver] waiting for item ...
T=1350000 [Driver] addr=0x80 RD   NO_ACC wdata=0x0 rdata=0x0
T=1350000 [Monitor] addr=0x50 WR ACC_MULT wdata=0x2 rdata=0x0
[SCB] Writing to Addr 0x50: the value is 0x2
[SCB] Updated Addr 0x50: New value is 0x2468ac
T=1370000 [Driver] waiting for item ...
T=1370000 [Driver] addr=0xa0 WR   NO_ACC wdata=0xaffaa rdata=0x0
T=1390000 [Driver] wait until ready is high
T=1390000 [Monitor] addr=0x80 RD   NO_ACC wdata=0x0 rdata=0x123456
[SCB] PASS! Addr 0x80: 0x123456
T=1410000 [Driver] waiting for item ...
T=1410000 [Driver] addr=0x34 WR   NO_ACC wdata=0x99b8d rdata=0x0
T=1410000 [Monitor] addr=0xa0 WR   NO_ACC wdata=0xaffaa rdata=0x0
[SCB] Writing to Addr 0xa0: the value is 0xaffaa
[SCB] Updated Addr 0xa0: New value is 0xaffaa
T=1430000 [Driver] waiting for item ...
T=1430000 [Driver] addr=0x94 WR  ACC_ADD wdata=0x46 rdata=0x0
T=1430000 [Monitor] addr=0x34 WR   NO_ACC wdata=0x99b8d rdata=0x0
[SCB] Writing to Addr 0x34: the value is 0x99b8d
[SCB] Updated Addr 0x34: New value is 0x99b8d
T=1450000 [Driver] waiting for item ...
T=1450000 [Driver] addr=0x58 RD  ACC_ADD wdata=0x16 rdata=0x0
T=1450000 [Monitor] addr=0x94 WR  ACC_ADD wdata=0x46 rdata=0x0
[SCB] Writing to Addr 0x94: the value is 0x46
[SCB] Updated Addr 0x94: New value is 0x12349c
T=1470000 [Driver] waiting for item ...
T=1470000 [Driver] addr=0xff WR   NO_ACC wdata=0x9469 rdata=0x0
T=1490000 [Driver] waiting for item ...
T=1490000 [Driver] addr=0xda WR   NO_ACC wdata=0xbb120 rdata=0x0
T=1510000 [Driver] waiting for item ...
T=1510000 [Driver] addr=0x6e WR  ACC_ADD wdata=0x36 rdata=0x0
T=1530000 [Driver] waiting for item ...
T=1530000 [Driver] addr=0x3c WR   NO_ACC wdata=0x89e07 rdata=0x0
T=1550000 [Driver] waiting for item ...
T=1550000 [Driver] addr=0x48 RD   NO_ACC wdata=0x619e9a rdata=0x0
T=1570000 [Driver] waiting for item ...
T=1570000 [Driver] addr=0xa9 RD  ACC_ADD wdata=0x4c rdata=0x0
T=1590000 [Driver] wait until ready is high
T=1590000 [Monitor] addr=0x58 RD  ACC_ADD wdata=0x16 rdata=0x123456
[SCB] PASS! Addr 0x58: 0x123456
T=1610000 [Driver] waiting for item ...
T=1610000 [Driver] addr=0x2c RD   NO_ACC wdata=0xbc rdata=0x0
T=1630000 [Driver] waiting for item ...
T=1630000 [Driver] addr=0x73 RD   NO_ACC wdata=0x777b2 rdata=0x0
T=1650000 [Driver] wait until ready is high
T=1650000 [Monitor] addr=0xa9 RD  ACC_ADD wdata=0x4c rdata=0x30680
[SCB] ERROR! Addr 0xa9: Exp=0x123456 Act=0x30680
T=1670000 [Driver] waiting for item ...
T=1670000 [Driver] addr=0x7e WR   NO_ACC wdata=0x16a66 rdata=0x0
T=1690000 [Driver] wait until ready is high
T=1690000 [Monitor] addr=0x73 RD   NO_ACC wdata=0x777b2 rdata=0x123456
[SCB] PASS! Addr 0x73: 0x123456
T=1710000 [Driver] waiting for item ...
T=1710000 [Driver] addr=0x17 WR  ACC_ADD wdata=0x26 rdata=0x0
T=1710000 [Monitor] addr=0x7e WR   NO_ACC wdata=0x16a66 rdata=0x0
[SCB] Writing to Addr 0x7e: the value is 0x16a66
[SCB] Updated Addr 0x7e: New value is 0x16a66
T=1730000 [Driver] waiting for item ...
T=1730000 [Driver] addr=0xc5 RD ACC_MULT wdata=0x62 rdata=0x0
T=1730000 [Monitor] addr=0x17 WR  ACC_ADD wdata=0x26 rdata=0x0
[SCB] Writing to Addr 0x17: the value is 0x26
[SCB] Updated Addr 0x17: New value is 0x12347c
T=1750000 [Driver] waiting for item ...
T=1750000 [Driver] addr=0x6c WR   NO_ACC wdata=0x50bc rdata=0x0
T=1770000 [Driver] waiting for item ...
T=1770000 [Driver] addr=0x64 WR  ACC_ADD wdata=0x3c rdata=0x0
T=1790000 [Driver] waiting for item ...
T=1790000 [Driver] addr=0x23 RD   NO_ACC wdata=0xd7df rdata=0x0
T=1810000 [Driver] waiting for item ...
T=1810000 [Driver] addr=0x6f WR   NO_ACC wdata=0xae77 rdata=0x0
T=1830000 [Driver] wait until ready is high
T=1830000 [Monitor] addr=0xc5 RD ACC_MULT wdata=0x62 rdata=0x123456
[SCB] PASS! Addr 0xc5: 0x123456
T=1850000 [Driver] waiting for item ...
T=1850000 [Driver] addr=0x33 WR   NO_ACC wdata=0x3e6af2 rdata=0x0
T=1850000 [Monitor] addr=0x6f WR   NO_ACC wdata=0xae77 rdata=0x0
[SCB] Writing to Addr 0x6f: the value is 0xae77
[SCB] Updated Addr 0x6f: New value is 0xae77
T=1870000 [Driver] waiting for item ...
T=1870000 [Driver] addr=0x5b WR   NO_ACC wdata=0xa9275 rdata=0x0
T=1870000 [Monitor] addr=0x33 WR   NO_ACC wdata=0x3e6af2 rdata=0x0
[SCB] Writing to Addr 0x33: the value is 0x3e6af2
[SCB] Updated Addr 0x33: New value is 0x3e6af2
T=1890000 [Driver] waiting for item ...
T=1890000 [Driver] addr=0x9d RD   NO_ACC wdata=0x77b15 rdata=0x0
T=1890000 [Monitor] addr=0x5b WR   NO_ACC wdata=0xa9275 rdata=0x0
[SCB] Writing to Addr 0x5b: the value is 0xa9275
[SCB] Updated Addr 0x5b: New value is 0xa9275
T=1910000 [Driver] waiting for item ...
T=1910000 [Driver] addr=0x94 WR ACC_MULT wdata=0x2a rdata=0x0
T=1930000 [Driver] wait until ready is high
T=1930000 [Monitor] addr=0x9d RD   NO_ACC wdata=0x77b15 rdata=0x123456
[SCB] PASS! Addr 0x9d: 0x123456
T=1950000 [Driver] waiting for item ...
T=1950000 [Driver] addr=0xf2 RD  ACC_ADD wdata=0xd rdata=0x0
T=1950000 [Monitor] addr=0x94 WR ACC_MULT wdata=0x2a rdata=0x0
[SCB] Writing to Addr 0x94: the value is 0x2a
[SCB] Updated Addr 0x94: New value is 0xfca198
T=1970000 [Driver] waiting for item ...
T=1970000 [Driver] addr=0xa0 WR  ACC_ADD wdata=0x24 rdata=0x0
T=1990000 [Driver] waiting for item ...
T=1990000 [Driver] addr=0x79 WR   NO_ACC wdata=0x173963 rdata=0x0
T=2010000 [Driver] waiting for item ...
T=2010000 [Driver] addr=0xdd WR ACC_MULT wdata=0x4b rdata=0x0
T=2030000 [Driver] waiting for item ...
T=2030000 [Driver] addr=0xc0 RD   NO_ACC wdata=0x802fdf rdata=0x0
T=2050000 [Driver] waiting for item ...
T=2050000 [Driver] addr=0xa2 RD   NO_ACC wdata=0x4476 rdata=0x0
T=2070000 [Driver] wait until ready is high
T=2070000 [Monitor] addr=0xf2 RD  ACC_ADD wdata=0xd rdata=0x123456
[SCB] PASS! Addr 0xf2: 0x123456
T=2090000 [Driver] waiting for item ...
T=2090000 [Driver] addr=0x59 WR   NO_ACC wdata=0x4dbd rdata=0x0
T=2110000 [Driver] wait until ready is high
T=2110000 [Monitor] addr=0xa2 RD   NO_ACC wdata=0x4476 rdata=0x123456
[SCB] PASS! Addr 0xa2: 0x123456
T=2130000 [Driver] waiting for item ...
T=2130000 [Driver] addr=0xf8 RD   NO_ACC wdata=0x7e28d0 rdata=0x0
T=2130000 [Monitor] addr=0x59 WR   NO_ACC wdata=0x4dbd rdata=0x0
[SCB] Writing to Addr 0x59: the value is 0x4dbd
[SCB] Updated Addr 0x59: New value is 0x4dbd
T=2150000 [Driver] waiting for item ...
T=2150000 [Driver] addr=0x10 RD   NO_ACC wdata=0x8170 rdata=0x0
T=2170000 [Driver] wait until ready is high
T=2170000 [Monitor] addr=0xf8 RD   NO_ACC wdata=0x7e28d0 rdata=0x123456
[SCB] PASS! Addr 0xf8: 0x123456
T=2190000 [Driver] waiting for item ...
T=2190000 [Driver] addr=0x35 RD   NO_ACC wdata=0xffffff rdata=0x0
T=2210000 [Driver] wait until ready is high
T=2210000 [Monitor] addr=0x10 RD   NO_ACC wdata=0x8170 rdata=0x123456
[SCB] PASS! Addr 0x10: 0x123456
T=2230000 [Driver] waiting for item ...
T=2230000 [Driver] addr=0x7d RD   NO_ACC wdata=0xa2639 rdata=0x0
T=2250000 [Driver] wait until ready is high
T=2250000 [Monitor] addr=0x35 RD   NO_ACC wdata=0xffffff rdata=0x123456
[SCB] PASS! Addr 0x35: 0x123456
T=2270000 [Driver] waiting for item ...
T=2270000 [Driver] addr=0x4d RD  ACC_ADD wdata=0x25 rdata=0x0
T=2290000 [Driver] wait until ready is high
T=2290000 [Monitor] addr=0x7d RD   NO_ACC wdata=0xa2639 rdata=0x123456
[SCB] PASS! Addr 0x7d: 0x123456
T=2310000 [Driver] waiting for item ...
T=2310000 [Driver] addr=0x6b RD   NO_ACC wdata=0xee rdata=0x0
T=2330000 [Driver] waiting for item ...
T=2330000 [Driver] addr=0x1f RD   NO_ACC wdata=0xced rdata=0x0
T=2350000 [Driver] wait until ready is high
T=2350000 [Monitor] addr=0x4d RD  ACC_ADD wdata=0x25 rdata=0x123456
[SCB] PASS! Addr 0x4d: 0x123456
T=2370000 [Driver] waiting for item ...
T=2370000 [Driver] addr=0xd3 WR  ACC_ADD wdata=0x57 rdata=0x0
T=2390000 [Driver] wait until ready is high
T=2390000 [Monitor] addr=0x1f RD   NO_ACC wdata=0xced rdata=0x123456
[SCB] PASS! Addr 0x1f: 0x123456
T=2410000 [Driver] waiting for item ...
T=2410000 [Driver] addr=0x97 RD   NO_ACC wdata=0x321b6 rdata=0x0
T=2410000 [Monitor] addr=0xd3 WR  ACC_ADD wdata=0x57 rdata=0x0
[SCB] Writing to Addr 0xd3: the value is 0x57
[SCB] Updated Addr 0xd3: New value is 0x1234ad
T=2430000 [Driver] waiting for item ...
T=2430000 [Driver] addr=0xf4 WR ACC_MULT wdata=0x12 rdata=0x0
T=2450000 [Driver] wait until ready is high
T=2450000 [Monitor] addr=0x97 RD   NO_ACC wdata=0x321b6 rdata=0x123456
[SCB] PASS! Addr 0x97: 0x123456
T=2470000 [Driver] waiting for item ...
T=2470000 [Driver] addr=0x71 WR   NO_ACC wdata=0xdd1e rdata=0x0
T=2470000 [Monitor] addr=0xf4 WR ACC_MULT wdata=0x12 rdata=0x0
[SCB] Writing to Addr 0xf4: the value is 0x12
[SCB] Updated Addr 0xf4: New value is 0x47ae0c
T=2490000 [Driver] waiting for item ...
T=2490000 [Driver] addr=0xc6 RD   NO_ACC wdata=0xce98f3 rdata=0x0
T=2490000 [Monitor] addr=0x71 WR   NO_ACC wdata=0xdd1e rdata=0x0
[SCB] Writing to Addr 0x71: the value is 0xdd1e
[SCB] Updated Addr 0x71: New value is 0xdd1e
T=2510000 [Driver] waiting for item ...
T=2510000 [Driver] addr=0xa7 RD   NO_ACC wdata=0xfdfc5c rdata=0x0
T=2530000 [Driver] wait until ready is high
T=2530000 [Monitor] addr=0xc6 RD   NO_ACC wdata=0xce98f3 rdata=0x123456
[SCB] PASS! Addr 0xc6: 0x123456
T=2550000 [Driver] waiting for item ...
T=2550000 [Driver] addr=0x64 RD   NO_ACC wdata=0xb83d rdata=0x0
T=2570000 [Driver] wait until ready is high
T=2570000 [Monitor] addr=0xa7 RD   NO_ACC wdata=0xfdfc5c rdata=0x123456
[SCB] PASS! Addr 0xa7: 0x123456
T=2590000 [Driver] waiting for item ...
T=2590000 [Driver] addr=0x3 WR ACC_MULT wdata=0x6 rdata=0x0
T=2610000 [Driver] wait until ready is high
T=2610000 [Monitor] addr=0x64 RD   NO_ACC wdata=0xb83d rdata=0x3c
[SCB] ERROR! Addr 0x64: Exp=0x123456 Act=0x3c
T=2630000 [Driver] waiting for item ...
T=2630000 [Driver] addr=0xbf WR   NO_ACC wdata=0x2c405 rdata=0x0
T=2630000 [Monitor] addr=0x3 WR ACC_MULT wdata=0x6 rdata=0x0
[SCB] Writing to Addr 0x3: the value is 0x6
[SCB] Updated Addr 0x3: New value is 0x6d3a04
T=2650000 [Driver] waiting for item ...
T=2650000 [Driver] addr=0xb7 RD   NO_ACC wdata=0xf4 rdata=0x0
T=2650000 [Monitor] addr=0xbf WR   NO_ACC wdata=0x2c405 rdata=0x0
[SCB] Writing to Addr 0xbf: the value is 0x2c405
[SCB] Updated Addr 0xbf: New value is 0x2c405
T=2670000 [Driver] waiting for item ...
T=2670000 [Driver] addr=0xc6 RD  ACC_ADD wdata=0x4d rdata=0x0
T=2690000 [Driver] wait until ready is high
T=2690000 [Monitor] addr=0xb7 RD   NO_ACC wdata=0xf4 rdata=0x123456
[SCB] PASS! Addr 0xb7: 0x123456
T=2710000 [Driver] waiting for item ...
T=2710000 [Driver] addr=0xdc RD ACC_MULT wdata=0x54 rdata=0x0
T=2730000 [Driver] waiting for item ...
T=2730000 [Driver] addr=0xd2 WR   NO_ACC wdata=0xc3299e rdata=0x0
T=2750000 [Driver] waiting for item ...
T=2750000 [Driver] addr=0xa6 RD  ACC_ADD wdata=0x3d rdata=0x0
T=2770000 [Driver] waiting for item ...
T=2770000 [Driver] addr=0x4e WR   NO_ACC wdata=0x4e5b20 rdata=0x0
T=2790000 [Driver] waiting for item ...
T=2790000 [Driver] addr=0x75 WR   NO_ACC wdata=0x75d9 rdata=0x0
T=2810000 [Driver] waiting for item ...
T=2810000 [Driver] addr=0xc9 WR   NO_ACC wdata=0x15d3 rdata=0x0
T=2830000 [Driver] waiting for item ...
T=2830000 [Driver] addr=0xc8 RD   NO_ACC wdata=0xf2 rdata=0x0
T=2850000 [Driver] waiting for item ...
T=2850000 [Driver] addr=0xb8 WR ACC_MULT wdata=0x24 rdata=0x0
T=2870000 [Driver] wait until ready is high
T=2870000 [Monitor] addr=0xc6 RD  ACC_ADD wdata=0x4d rdata=0x123456
[SCB] PASS! Addr 0xc6: 0x123456
T=2890000 [Driver] waiting for item ...
T=2890000 [Driver] addr=0xb6 WR   NO_ACC wdata=0x9ba6 rdata=0x0
T=2890000 [Monitor] addr=0xb8 WR ACC_MULT wdata=0x24 rdata=0x0
[SCB] Writing to Addr 0xb8: the value is 0x24
[SCB] Updated Addr 0xb8: New value is 0x8f6680
T=2910000 [Driver] waiting for item ...
T=2910000 [Driver] addr=0xeb WR   NO_ACC wdata=0x4d rdata=0x0
T=2910000 [Monitor] addr=0xb6 WR   NO_ACC wdata=0x9ba6 rdata=0x0
[SCB] Writing to Addr 0xb6: the value is 0x9ba6
[SCB] Updated Addr 0xb6: New value is 0x9ba6
T=2930000 [Driver] waiting for item ...
T=2930000 [Driver] addr=0x49 WR   NO_ACC wdata=0x8b52 rdata=0x0
T=2930000 [Monitor] addr=0xeb WR   NO_ACC wdata=0x4d rdata=0x0
[SCB] Writing to Addr 0xeb: the value is 0x4d
[SCB] Updated Addr 0xeb: New value is 0x4d
T=2950000 [Driver] waiting for item ...
T=2950000 [Driver] addr=0xdc WR ACC_MULT wdata=0x5c rdata=0x0
T=2950000 [Monitor] addr=0x49 WR   NO_ACC wdata=0x8b52 rdata=0x0
[SCB] Writing to Addr 0x49: the value is 0x8b52
[SCB] Updated Addr 0x49: New value is 0x8b52
T=2970000 [Driver] waiting for item ...
T=2970000 [Driver] addr=0x11 RD ACC_MULT wdata=0x5d rdata=0x0
T=2970000 [Monitor] addr=0xdc WR ACC_MULT wdata=0x5c rdata=0x0
[SCB] Writing to Addr 0xdc: the value is 0x5c
[SCB] Updated Addr 0xdc: New value is 0x8acee8
T=2990000 [Driver] waiting for item ...
T=2990000 [Driver] addr=0xa8 RD   NO_ACC wdata=0x2516 rdata=0x0
T=3010000 [Driver] waiting for item ...
T=3010000 [Driver] addr=0x40 WR   NO_ACC wdata=0xd96 rdata=0x0
T=3030000 [Driver] wait until ready is high
T=3030000 [Monitor] addr=0x11 RD ACC_MULT wdata=0x5d rdata=0x123456
[SCB] ERROR! Addr 0x11: Exp=0x293f Act=0x123456
T=3050000 [Driver] waiting for item ...
T=3050000 [Driver] addr=0x45 WR   NO_ACC wdata=0x8030 rdata=0x0
T=3050000 [Monitor] addr=0x40 WR   NO_ACC wdata=0xd96 rdata=0x0
[SCB] Writing to Addr 0x40: the value is 0xd96
[SCB] Updated Addr 0x40: New value is 0xd96
T=3070000 [Driver] waiting for item ...
T=3070000 [Driver] addr=0xcf RD ACC_MULT wdata=0xd rdata=0x0
T=3070000 [Monitor] addr=0x45 WR   NO_ACC wdata=0x8030 rdata=0x0
[SCB] Writing to Addr 0x45: the value is 0x8030
